…
``` r
library(tidyr)
```

Task 1: TOP CUISINES AND THEIR PERCENTAGES

``` r
#Split the 'Cuisines' column to handle multiple cuisines per restaurant
D_A_cuisines <- D_A_clean %>%
  separate_rows(Cuisines, sep = ",") %>%
  mutate(Cuisines = trimws(Cuisines))  # Remove extra spaces
print(D_A_cuisines)
```

    ## # A tibble: 19,710 × 21
    ##    Restaurant.ID Restaurant.Name        Country.Code City       Address Locality
    ##            <int> <chr>                         <int> <chr>      <chr>   <chr>   
    ##  1       6317637 Le Petit Souffle                162 Makati Ci… Third … Century…
    ##  2       6317637 Le Petit Souffle                162 Makati Ci… Third … Century…
    ##  3       6317637 Le Petit Souffle                162 Makati Ci… Third … Century…
    ##  4       6304287 Izakaya Kikufuji                162 Makati Ci… Little… Little …
    ##  5       6300002 Heat - Edsa Shangri-La          162 Mandaluyo… Edsa S… Edsa Sh…
    ##  6       6300002 Heat - Edsa Shangri-La          162 Mandaluyo… Edsa S… Edsa Sh…
    ##  7       6300002 Heat - Edsa Shangri-La          162 Mandaluyo… Edsa S… Edsa Sh…
    ##  8       6300002 Heat - Edsa Shangri-La          162 Mandaluyo… Edsa S… Edsa Sh…
    ##  9       6318506 Ooma                            162 Mandaluyo… Third … SM Mega…
    ## 10       6318506 Ooma                            162 Mandaluyo… Third … SM Mega…
    ## # ℹ 19,700 more rows
    ## # ℹ 15 more variables: Locality.Verbose <chr>, Longitude <dbl>, Latitude <dbl>,
    ## #   Cuisines <chr>, Average.Cost.for.two <int>, Currency <chr>,
    ## #   Has.Table.booking <chr>, Has.Online.delivery <chr>,
    ## #   Is.delivering.now <chr>, Switch.to.order.menu <chr>, Price.range <int>,
    ## #   Aggregate.rating <dbl>, Rating.color <chr>, Rating.text <chr>, Votes <int>
…
``` r
# Step 2: Calculate the Average Rating for Restaurants in Each City

city_avg_rating <- D_A_cuisines %>%
  group_by(City) %>%
  summarise(average_rating = mean(Aggregate.rating, na.rm = TRUE)) %>%
  arrange(desc(average_rating))

# Display the average rating for each city
print(city_avg_rating)
```

    ## # A tibble: 140 × 2
    ##    City             average_rating
    ##    <chr>                     <dbl>
    ##  1 Inner City                 4.9 
    ##  2 Quezon City                4.8 
    ##  3 Makati City                4.72
    ##  4 Mandaluyong City           4.6 
    ##  5 Beechworth                 4.6 
    ##  6 Pasig City                 4.53
    ##  7 London                     4.53
    ##  8 Taguig City                4.53
    ##  9 Lincoln                    4.5 
    ## 10 Secunderabad               4.5 
    ## # ℹ 130 more rows
…
# Calculate the average number of votes
Average_votes <- D_A_cuisines %>%
  summarise(average_votes = mean(Votes, na.rm = TRUE))


# Step 1: Identify the Most Common Combinations of Cuisines
# Count how many times each cuisine combination appears
Common_cuisines_combination <- D_A_cuisines %>%
  group_by(Cuisines)%>%
  summarise(count = n())%>%
  arrange(desc(count)) 
print(Common_cuisines_combination)
```

    ## # A tibble: 145 × 2
    ##    Cuisines     count
    ##    <chr>        <int>
    ##  1 North Indian  3960
    ##  2 Chinese       2735
    ##  3 Fast Food     1986
    ##  4 Mughlai        995
    ##  5 Italian        764
    ##  6 Bakery         745
    ##  7 Continental    736
    ##  8 Cafe           703
    ##  9 Desserts       653
    ## 10 South Indian   636
    ## # ℹ 135 more rows
…
# Step 2: View the result
print(restaurant_chains)
```

    ## # A tibble: 734 × 4
    ##    Restaurant.Name           location_count avg_rating total_votes
    ##    <chr>                              <int>      <dbl>       <int>
    ##  1 10 Downing Street                      2       4           1340
    ##  2 221 B Baker Street                     3       3.37         215
    ##  3 34 Parkstreet Lane                     2       3.05          31
    ##  4 34, Chowringhee Lane                  12       2.39         777
    ##  5 4700BC Popcorn                         2       3.5          176
    ##  6 6 Pack Momos                           2       1.4            8
    ##  7 A Piece of Paris                       2       3.75         162
    ##  8 AB's - Absolute Barbecues              4       4.82       40200
    ##  9 AB's Absolute Barbecues                2       4.85        6302
    ## 10 Aap Ki Khatir                          2       0              0
    ## # ℹ 724 more rows

``` r
# You can sort by average rating or total votes to find the most popular chains
top_rated_chains <- restaurant_chains %>%
  arrange(desc(avg_rating))  # Sort by average rating

print(top_rated_chains)
```

    ## # A tibble: 734 × 4
    ##    Restaurant.Name           location_count avg_rating total_votes
    ##    <chr>                              <int>      <dbl>       <int>
    ##  1 Talaga Sampireun                       3       4.9        11028
    ##  2 AB's Absolute Barbecues                2       4.85        6302
    ##  3 Silantro Fil-Mex                       2       4.85        2728
    ##  4 AB's - Absolute Barbecues              4       4.82       40200
    ##  5 Naturals Ice Cream                     2       4.8         3094
    ##  6 Gymkhana                               2       4.7          756
    ##  7 The Cheesecake Factory                 2       4.65        6020
    ##  8 Dishoom                                2       4.61        4771
    ##  9 Chili's                                5       4.6        30215
    ## 10 Garota de Ipanema                      2       4.6          118
    ## # ℹ 724 more rows

``` r
most_popular_chains <- restaurant_chains %>%
  arrange(desc(total_votes))  # Sort by total votes

print(most_popular_chains)
```

    ## # A tibble: 734 × 4
    ##    Restaurant.Name           location_count avg_rating total_votes
    ##    <chr>                              <int>      <dbl>       <int>
    ##  1 Barbeque Nation                       26       4.33       58631
    ##  2 Big Chill                              4       4.47       43412
    ##  3 AB's - Absolute Barbecues              4       4.82       40200
    ##  4 Tea Villa Cafe                         4       3.92       31002
    ##  5 Chili's                                5       4.6        30215
    ##  6 Truffles                               2       4.32       29016
    ##  7 Haldiram's                            16       3.63       28445
    ##  8 Pirates of Grill                       4       4.03       27342
    ##  9 Subway                                63       2.91       24496
    ## 10 Out Of The Box                         2       3.89       23209
    ## # ℹ 724 more rows
…
